Seurat_proc_1LC.knit.md
…
Calculating cluster 13

Calculating cluster 14

Calculating cluster 15

Calculating cluster 16

Calculating cluster 17

Loco.markers %>%
  group_by(cluster) %>%
  slice_max(n = 10, order_by = avg_log2FC)

# A tibble: 180 × 8
# Groups:   cluster [18]
   myAUC avg_diff power avg_log2FC pct.1 pct.2 cluster gene    
   <dbl>    <dbl> <dbl>      <dbl> <dbl> <dbl> <fct>   <chr>   
 1 0.905     2.56 0.81        3.69 0.821 0.026 0       Ptgds   
 2 0.969     2.55 0.938       3.68 1     0.745 0       Plp1    
 3 0.976     2.47 0.952       3.57 1     0.386 0       Mbp     
 4 0.959     2.47 0.918       3.56 0.964 0.131 0       Mal     
 5 0.982     2.43 0.964       3.50 1     0.105 0       Mobp    
 6 0.986     2.37 0.972       3.42 1     0.382 0       Dock10  
 7 0.991     2.37 0.982       3.42 1     0.217 0       Tspan2  
 8 0.979     2.33 0.958       3.36 1     0.094 0       Mag     
 9 0.991     2.30 0.982       3.31 1     0.266 0       Ppp1r16b
10 0.982     2.29 0.964       3.30 1     0.169 0       St18    
# … with 170 more rows
…
