R Notebook
…
Calculating cluster 10

Calculating cluster 11

Calculating cluster 12

Calculating cluster 13

Calculating cluster 14

Loco.markers %>%
    group_by(cluster) %>%
    slice_max(n = 10, order_by = avg_log2FC)

# A tibble: 150 × 7
# Groups:   cluster [15]
       p_val avg_log2FC pct.1 pct.2 p_val_adj cluster gene   
       <dbl>      <dbl> <dbl> <dbl>     <dbl> <fct>   <chr>  
 1 0               3.77 1     0.416 0         0       Plp1   
 2 0               2.67 0.993 0.374 0         0       Pde4b  
 3 0               2.55 0.972 0.109 0         0       Mbp    
 4 0               2.39 0.965 0.246 0         0       Tmeff2 
 5 0               2.23 1     0.824 0         0       Pcdh9  
 6 0               2.07 0.985 0.472 0         0       Nkain2 
 7 0               2.02 0.929 0.188 0         0       Rnf220 
 8 0               1.99 0.962 0.29  0         0       Slc24a2
 9 1.10e-306       1.97 0.929 0.251 1.81e-302 0       Plcl1  
10 0               1.94 0.907 0.151 0         0       Dock10 
# … with 140 more rows
…
